\relax 
\newlabel{usepackage}{{}{}}
\newlabel{sec:titulo}{{}{}}
\newlabel{sec:resumen}{{}{}}
\@writefile{toc}{\contentsline {section}{\numberline {I}Introducci\'on}{}\protected@file@percent }
\newlabel{sec:introduccion}{{I}{}}
\@writefile{toc}{\contentsline {section}{\numberline {II}Marco Te\'orico}{}\protected@file@percent }
\newlabel{sec:marcoteorico}{{II}{}}
\@writefile{toc}{\contentsline {subsubsection}{\numberline {\mbox  {II-}1}Programaci\'on:}{}\protected@file@percent }
\@writefile{toc}{\contentsline {section}{\numberline {III}Resultados}{}\protected@file@percent }
\newlabel{sec:resultados}{{III}{}}
\bibstyle{IEEEtran}
\bibdata{bibfile}
\bibcite{baio2011avaliaccao}{1}
\bibcite{collepardi1991scienza}{2}
\bibcite{braga2005eletronica}{3}
\bibcite{bronson2000c}{4}
\bibcite{amarante2008questao}{5}
\bibcite{oliveira2003relaccao}{6}
\bibcite{queiroga2008tecnologias}{7}
\@writefile{toc}{\contentsline {section}{\numberline {IV}An\'alisis}{}\protected@file@percent }
\newlabel{sec:analisis}{{IV}{}}
\@writefile{lof}{\contentsline {figure}{\numberline {1}{\ignorespaces Funcionamiento IMU - STM32}}{}\protected@file@percent }
\newlabel{fig:IMU}{{1}{}}
\@writefile{lof}{\contentsline {figure}{\numberline {2}{\ignorespaces Conexiones IMU - STM}}{}\protected@file@percent }
\newlabel{fig:Conexion IMU}{{2}{}}
\@writefile{toc}{\contentsline {section}{\numberline {V}Conclusiones}{}\protected@file@percent }
\newlabel{sec:conclusiones}{{V}{}}
\@writefile{toc}{\contentsline {section}{Referencias}{}\protected@file@percent }
